<svg width="6" height="10" viewBox="0 0 6 10" fill="none" xmlns="http://www.w3.org/2000/svg">
<g clip-path="url(#clip0)">
<path d="M1 9L5 5L1 1" stroke="#69B500" stroke-width="2" stroke-linecap="round" stroke-linejoin="round"/>
</g>
<defs>
<clipPath id="clip0">
<rect width="10" height="6" fill="white" transform="translate(0 10) rotate(-90)"/>
</clipPath>
</defs>
</svg>
