<svg width="15" height="15" viewBox="0 0 15 15" fill="none" xmlns="http://www.w3.org/2000/svg">
<path d="M13.967 4.82205C13.9365 4.13131 13.8248 3.65643 13.6647 3.24494C13.4996 2.80815 13.2456 2.4171 12.9128 2.09201C12.5877 1.76187 12.194 1.50533 11.7622 1.34284C11.3482 1.18283 10.8757 1.07113 10.1849 1.04067C9.48883 1.00764 9.26787 1 7.50253 1C5.7372 1 5.51623 1.00764 4.82278 1.03809C4.1319 1.06855 3.65693 1.18035 3.24546 1.34026C2.8085 1.50533 2.41737 1.75929 2.09222 2.09201C1.76202 2.4171 1.50553 2.81073 1.34291 3.24246C1.18286 3.65643 1.07114 4.12873 1.04068 4.81947C1.00764 5.51537 1 5.73629 1 7.50129C1 9.26629 1.00764 9.48721 1.0381 10.1805C1.06856 10.8713 1.18038 11.3462 1.34043 11.7576C1.50553 12.1944 1.76202 12.5855 2.09222 12.9106C2.41737 13.2407 2.81108 13.4972 3.24288 13.6597C3.65693 13.8198 4.12932 13.9315 4.8203 13.9619C5.51365 13.9925 5.73471 14 7.50005 14C9.26538 14 9.48635 13.9925 10.1798 13.9619C10.8707 13.9315 11.3456 13.8198 11.7571 13.6597C12.631 13.322 13.3218 12.6312 13.6597 11.7576C13.8196 11.3437 13.9314 10.8713 13.9619 10.1805C13.9924 9.48721 14 9.26629 14 7.50129C14 5.73629 13.9974 5.51537 13.967 4.82205ZM12.7961 10.1297C12.7681 10.7646 12.6614 11.1075 12.5725 11.336C12.354 11.9024 11.9045 12.3519 11.338 12.5703C11.1094 12.6592 10.764 12.7658 10.1315 12.7937C9.44567 12.8243 9.23998 12.8318 7.50511 12.8318C5.77024 12.8318 5.56197 12.8243 4.87864 12.7937C4.24363 12.7658 3.90072 12.6592 3.67211 12.5703C3.39023 12.4661 3.13364 12.3011 2.92538 12.0852C2.70947 11.8744 2.54437 11.6204 2.44019 11.3386C2.35129 11.1101 2.24462 10.7646 2.21674 10.1323C2.18618 9.44664 2.17864 9.24089 2.17864 7.50635C2.17864 5.77181 2.18618 5.56358 2.21674 4.88048C2.24462 4.24559 2.35129 3.90274 2.44019 3.67418C2.54437 3.39225 2.70947 3.13581 2.92796 2.92749C3.1387 2.71163 3.39271 2.54656 3.67469 2.44249C3.9033 2.35361 4.24878 2.24697 4.88122 2.21899C5.56703 2.18854 5.77282 2.1809 7.50759 2.1809C9.24504 2.1809 9.45073 2.18854 10.1341 2.21899C10.7691 2.24697 11.112 2.35361 11.3406 2.44249C11.6225 2.54656 11.8791 2.71163 12.0873 2.92749C12.3032 3.13829 12.4683 3.39225 12.5725 3.67418C12.6614 3.90274 12.7681 4.24807 12.7961 4.88048C12.8265 5.56616 12.8342 5.77181 12.8342 7.50635C12.8342 9.24089 12.8265 9.44406 12.7961 10.1297Z" fill="white"/>
<path d="M7.5 5C6.11982 5 5 6.11974 5 7.5C5 8.88026 6.11982 10 7.5 10C8.88026 10 10 8.88026 10 7.5C10 6.11974 8.88026 5 7.5 5ZM7.5 9.12169C6.60461 9.12169 5.87831 8.39547 5.87831 7.5C5.87831 6.60453 6.60461 5.87831 7.5 5.87831C8.39547 5.87831 9.12169 6.60453 9.12169 7.5C9.12169 8.39547 8.39547 9.12169 7.5 9.12169Z" fill="white"/>
<path d="M12 4C12 4.55223 11.5523 5 10.9999 5C10.4477 5 10 4.55223 10 4C10 3.44764 10.4477 3 10.9999 3C11.5523 3 12 3.44764 12 4Z" fill="white"/>
</svg>
