<svg width="36" height="40" viewBox="0 0 36 40" fill="none" xmlns="http://www.w3.org/2000/svg">
<g clip-path="url(#clip0)">
<path d="M9.30041 32.4692L36 15.0992L28.0427 -0.00108234L1.34312 17.3689L9.30041 32.4692Z" fill="#31978C"/>
<path d="M25.9908 3.3006L4.94389 16.9935C5.40166 17.8622 5.12063 18.9905 4.31641 19.5137L9.0739 28.5417C9.87819 28.0185 10.9013 28.2984 11.359 29.167L32.4061 15.4742C31.9483 14.6055 32.2292 13.4772 33.0336 12.9539L28.276 3.92594C27.4716 4.44931 26.4486 4.16927 25.9908 3.3006Z" fill="#44C4A1"/>
<path d="M22.3367 13.8505C20.8377 11.0057 17.9828 9.76635 15.9602 11.0822C13.9376 12.398 13.5132 15.7708 15.0123 18.6156C16.5113 21.4603 19.3662 22.6997 21.3888 21.3838C23.4114 20.068 23.8358 16.6952 22.3367 13.8505Z" fill="#31978C"/>
<path d="M29.0459 10.5526C29.5761 10.5526 30.006 10.075 30.006 9.48593C30.006 8.89682 29.5761 8.41925 29.0459 8.41925C28.5157 8.41925 28.0859 8.89682 28.0859 9.48593C28.0859 10.075 28.5157 10.5526 29.0459 10.5526Z" fill="#31978C"/>
<path d="M8.29985 24.0511C8.83005 24.0511 9.25986 23.5736 9.25986 22.9845C9.25986 22.3954 8.83005 21.9178 8.29985 21.9178C7.76965 21.9178 7.33984 22.3954 7.33984 22.9845C7.33984 23.5736 7.76965 24.0511 8.29985 24.0511Z" fill="#3EA69B"/>
<path d="M20.6614 20.5107L20.2764 19.7801C19.4041 20.2223 18.4736 20.3395 17.4859 20.1312L17.6846 18.8328C18.4456 18.9918 19.1173 18.9441 19.7017 18.6896L18.6786 16.7481C17.905 17.0096 17.2831 17.096 16.8133 17.0074C16.3434 16.9189 15.9564 16.5861 15.6523 16.0091C15.3483 15.4321 15.2806 14.8423 15.4506 14.2386C15.6208 13.6351 15.9882 13.1276 16.5534 12.7152L16.2896 12.2148L16.8658 11.8399L17.1347 12.3502C17.8234 11.9743 18.5796 11.818 19.4038 11.8822L19.3033 13.1839C18.7416 13.1283 18.2108 13.2139 17.7095 13.4411L18.7008 15.3224L18.7279 15.3047C19.5135 15.0359 20.149 14.9494 20.6345 15.0453C21.121 15.1411 21.5178 15.4812 21.8253 16.0647C22.133 16.6486 22.1974 17.2454 22.0182 17.8541C21.8394 18.4637 21.453 18.9835 20.8578 19.4156L21.2374 20.1359L20.6614 20.5107ZM16.6219 14.4646C16.5477 14.7141 16.5699 14.9506 16.6877 15.1741C16.8055 15.3977 16.9588 15.5353 17.1474 15.587C17.3356 15.6396 17.6301 15.6158 18.0298 15.5171L17.1174 13.7857C16.8612 13.9885 16.6959 14.2146 16.6219 14.4646ZM20.8305 17.619C20.9176 17.3567 20.9 17.1084 20.7769 16.8747C20.6539 16.6414 20.4903 16.499 20.2863 16.448C20.0815 16.3975 19.7676 16.4294 19.3444 16.5435L20.2935 18.3445C20.5642 18.1241 20.7428 17.8822 20.8305 17.619Z" fill="#44C4A1"/>
<path d="M20.0576 25.4702L25.2422 22.0973L17.2849 6.99701L12.1003 10.37L20.0576 25.4702Z" fill="#F6C358"/>
<path d="M20.4434 25.2223L20.8398 24.9644L12.8825 9.86416L12.4861 10.1221L20.4434 25.2223Z" fill="white"/>
<path d="M24.4629 22.6039L24.8594 22.3459L16.9021 7.24568L16.5056 7.5036L24.4629 22.6039Z" fill="white"/>
<path d="M5.07581 34.0361L35.457 27.546L32.4839 10.3636L2.10265 16.8537L5.07581 34.0361Z" fill="#3EA69B"/>
<path d="M5.75579 31.3442L3.63281 19.0718C4.24301 18.9415 4.64255 18.2863 4.52529 17.6083L30.4895 12.0633C30.6068 12.7413 31.1966 13.1852 31.8067 13.0549L33.9297 25.3274C33.3195 25.4577 32.9199 26.1129 33.0372 26.7909L7.07294 32.3358C6.95567 31.6578 6.36599 31.2138 5.75579 31.3442Z" fill="#44C4A1"/>
<path d="M22.9453 21.3088C22.3852 18.0718 20.0654 15.8463 17.7639 16.3379C15.4624 16.8296 14.0507 19.8522 14.6108 23.0892C15.1709 26.3262 17.4907 28.5517 19.7922 28.06C22.0937 27.5684 23.5054 24.5457 22.9453 21.3088Z" fill="#3EA69B"/>
<path d="M30.5811 20.7456C31.1113 20.7456 31.5411 20.268 31.5411 19.6789C31.5411 19.0898 31.1113 18.6122 30.5811 18.6122C30.0509 18.6122 29.6211 19.0898 29.6211 19.6789C29.6211 20.268 30.0509 20.7456 30.5811 20.7456Z" fill="#3EA69B"/>
<path d="M6.97563 25.7871C7.50583 25.7871 7.93564 25.3095 7.93564 24.7204C7.93564 24.1313 7.50583 23.6537 6.97563 23.6537C6.44544 23.6537 6.01562 24.1313 6.01562 24.7204C6.01562 25.3095 6.44544 25.7871 6.97563 25.7871Z" fill="#3EA69B"/>
<path d="M19.3718 26.9679L19.2281 26.1366C18.273 26.2305 17.3606 25.9963 16.4919 25.4341L17.0687 24.2836C17.7384 24.7153 18.3861 24.9191 19.0134 24.8956L18.6312 22.6862C17.8234 22.6463 17.2112 22.4974 16.7948 22.2399C16.3783 21.9824 16.1133 21.5253 15.9997 20.8687C15.8861 20.2121 15.9993 19.631 16.3406 19.1246C16.6821 18.6188 17.1808 18.2763 17.8373 18.0967L17.7388 17.5272L18.3944 17.3872L18.4948 17.9679C19.2569 17.8685 20.0168 18.0013 20.7746 18.367L20.2894 19.5571C19.7764 19.2967 19.2503 19.1808 18.7096 19.2093L19.0799 21.3501L19.1107 21.3435C19.9319 21.381 20.5571 21.5348 20.9861 21.805C21.4161 22.0755 21.6881 22.5431 21.803 23.2072C21.9179 23.8717 21.7997 24.4582 21.4481 24.9657C21.0967 25.4741 20.5763 25.8212 19.8856 26.0081L20.0274 26.8279L19.3718 26.9679ZM17.3771 19.7716C17.2323 19.9794 17.1824 20.2106 17.2263 20.465C17.2703 20.7194 17.3735 20.9059 17.5358 21.0245C17.6974 21.1437 17.9823 21.2304 18.3888 21.2854L18.048 19.3151C17.7455 19.4113 17.5218 19.5634 17.3771 19.7716ZM20.3987 24.3043C20.5596 24.0893 20.6174 23.8486 20.5714 23.5827C20.5255 23.3171 20.414 23.1224 20.2369 22.9987C20.0589 22.8752 19.7534 22.7891 19.3203 22.7399L19.6749 24.7895C19.9962 24.6819 20.2371 24.5199 20.3987 24.3043Z" fill="#44C4A1"/>
<path d="M12.5649 37.065C12.5649 38.6859 9.75214 40 6.28243 40C2.81272 40 0 38.6859 0 37.065V34.6642H12.5649V37.065Z" fill="#F6C358"/>
<path d="M6.2825 37.5957C9.75223 37.5957 12.565 36.2824 12.565 34.6623C12.565 33.0422 9.75223 31.7289 6.2825 31.7289C2.81277 31.7289 0 33.0422 0 34.6623C0 36.2824 2.81277 37.5957 6.2825 37.5957Z" fill="#FCD462"/>
<path d="M6.28375 32.3025C3.25563 32.3025 0.800781 33.3598 0.800781 34.6641C0.800781 35.9684 3.25563 37.0257 6.28375 37.0257C9.31188 37.0257 11.7667 35.9684 11.7667 34.6641C11.7667 33.3598 9.31188 32.3025 6.28375 32.3025ZM6.28375 36.7633C3.59211 36.7633 1.41002 35.8234 1.41002 34.664C1.41002 33.5047 3.59211 32.5648 6.28375 32.5648C8.9754 32.5648 11.1575 33.5047 11.1575 34.664C11.1575 35.8235 8.9754 36.7633 6.28375 36.7633Z" fill="#DC8744"/>
<path d="M6.08402 36.2955V36.0082C5.24889 35.9715 4.49923 35.8285 3.83594 35.5793L4.50297 35.2369C5.01458 35.4285 5.54113 35.5425 6.08402 35.5793V34.8157C5.39538 34.7449 4.89116 34.6517 4.57138 34.5362C4.2516 34.4207 4.09171 34.2495 4.09171 34.0226C4.09171 33.7956 4.2754 33.6101 4.64426 33.4655C5.01311 33.3213 5.49279 33.2426 6.08402 33.2295V33.0326H6.6685V33.2333C7.33854 33.2544 7.97217 33.3528 8.56933 33.5286L7.97517 33.8908C7.57285 33.7675 7.13778 33.6914 6.66858 33.6624V34.4023H6.69611C7.39662 34.4733 7.91123 34.5691 8.23995 34.6896C8.5694 34.8104 8.73376 34.9856 8.73376 35.2151C8.73376 35.4448 8.54487 35.6319 8.16707 35.776C7.78928 35.9204 7.29027 35.9991 6.66858 36.0122V36.2955H6.08402ZM5.43925 33.755C5.28382 33.8139 5.20648 33.8875 5.20648 33.9754C5.20648 34.0633 5.26749 34.1329 5.38944 34.1839C5.51066 34.2352 5.7427 34.2843 6.08402 34.3315V33.6505C5.80957 33.6611 5.59467 33.6959 5.43925 33.755ZM7.36307 35.4808C7.53337 35.4206 7.61892 35.3445 7.61892 35.2526C7.61892 35.1608 7.55197 35.088 7.41815 35.0342C7.28353 34.9804 7.0337 34.9299 6.66858 34.8827V35.591C6.96075 35.5781 7.19205 35.5412 7.36307 35.4808Z" fill="#DC8744"/>
<path d="M12.5649 34.1492C12.5649 35.7701 9.75214 37.0842 6.28243 37.0842C2.81272 37.0842 0 35.7702 0 34.1492V31.7484H12.5649V34.1492Z" fill="#F6C358"/>
<path d="M6.2825 34.6832C9.75223 34.6832 12.565 33.3698 12.565 31.7498C12.565 30.1297 9.75223 28.8163 6.2825 28.8163C2.81277 28.8163 0 30.1297 0 31.7498C0 33.3698 2.81277 34.6832 6.2825 34.6832Z" fill="#FCD462"/>
<path d="M6.28375 29.3868C3.25563 29.3868 0.800781 30.4441 0.800781 31.7484C0.800781 33.0527 3.25563 34.11 6.28375 34.11C9.31188 34.11 11.7667 33.0527 11.7667 31.7484C11.7667 30.4441 9.31188 29.3868 6.28375 29.3868ZM6.28375 33.8476C3.59211 33.8476 1.41002 32.9077 1.41002 31.7483C1.41002 30.589 3.59211 29.6491 6.28375 29.6491C8.9754 29.6491 11.1575 30.589 11.1575 31.7483C11.1575 32.9078 8.9754 33.8476 6.28375 33.8476Z" fill="#DC8744"/>
<path d="M6.08402 33.3798V33.0925C5.24889 33.0558 4.49923 32.9128 3.83594 32.6636L4.50297 32.3212C5.01458 32.5128 5.54113 32.6268 6.08402 32.6636V31.9C5.39538 31.8292 4.89116 31.736 4.57138 31.6205C4.2516 31.505 4.09171 31.3338 4.09171 31.1069C4.09171 30.8799 4.2754 30.6944 4.64426 30.5498C5.01311 30.4055 5.49279 30.3269 6.08402 30.3137V30.1169H6.6685V30.3176C7.33854 30.3387 7.97217 30.437 8.56933 30.6129L7.97517 30.9751C7.57285 30.8518 7.13778 30.7757 6.66858 30.7467V31.4866H6.69611C7.39662 31.5576 7.91123 31.6534 8.23995 31.774C8.5694 31.8948 8.73376 32.07 8.73376 32.2995C8.73376 32.5291 8.54487 32.7162 8.16707 32.8604C7.78928 33.0048 7.29027 33.0834 6.66858 33.0966V33.3799H6.08402V33.3798ZM5.43925 30.8393C5.28382 30.8982 5.20648 30.9718 5.20648 31.0597C5.20648 31.1476 5.26749 31.2172 5.38944 31.2682C5.51066 31.3195 5.7427 31.3686 6.08402 31.4158V30.7348C5.80957 30.7455 5.59467 30.7802 5.43925 30.8393ZM7.36307 32.5651C7.53337 32.5049 7.61892 32.4288 7.61892 32.3369C7.61892 32.2451 7.55197 32.1723 7.41815 32.1185C7.28353 32.0647 7.0337 32.0142 6.66858 31.9669V32.6753C6.96075 32.6624 7.19205 32.6255 7.36307 32.5651Z" fill="#DC8744"/>
<path d="M12.5649 31.2333C12.5649 32.8542 9.75214 34.1683 6.28243 34.1683C2.81272 34.1683 0 32.8543 0 31.2333V28.8325H12.5649V31.2333Z" fill="#F6C358"/>
<path d="M6.2825 31.7665C9.75223 31.7665 12.565 30.4532 12.565 28.8331C12.565 27.213 9.75223 25.8997 6.2825 25.8997C2.81277 25.8997 0 27.213 0 28.8331C0 30.4532 2.81277 31.7665 6.2825 31.7665Z" fill="#FCD462"/>
<path d="M6.28375 26.4708C3.25563 26.4708 0.800781 27.5281 0.800781 28.8325C0.800781 30.1368 3.25563 31.1941 6.28375 31.1941C9.31188 31.1941 11.7667 30.1368 11.7667 28.8325C11.7667 27.5281 9.31188 26.4708 6.28375 26.4708ZM6.28375 30.9317C3.59211 30.9317 1.41002 29.9918 1.41002 28.8325C1.41002 27.6731 3.59211 26.7332 6.28375 26.7332C8.9754 26.7332 11.1575 27.6731 11.1575 28.8325C11.1575 29.9918 8.9754 30.9317 6.28375 30.9317Z" fill="#DC8744"/>
<path d="M6.08402 30.4639V30.1766C5.24889 30.1399 4.49923 29.9969 3.83594 29.7477L4.50297 29.4053C5.01458 29.5969 5.54113 29.7109 6.08402 29.7477V28.9841C5.39538 28.9133 4.89116 28.8201 4.57138 28.7046C4.2516 28.5891 4.09171 28.4179 4.09171 28.191C4.09171 27.9641 4.2754 27.7785 4.64426 27.6339C5.01311 27.4897 5.49279 27.411 6.08402 27.3979V27.201H6.6685V27.4017C7.33854 27.4228 7.97217 27.5211 8.56933 27.697L7.97517 28.0592C7.57285 27.9359 7.13778 27.8598 6.66858 27.8308V28.5707H6.69611C7.39662 28.6417 7.91123 28.7375 8.23995 28.8581C8.5694 28.9789 8.73376 29.1541 8.73376 29.3836C8.73376 29.6132 8.54487 29.8003 8.16707 29.9445C7.78928 30.0889 7.29027 30.1675 6.66858 30.1807V30.464H6.08402V30.4639ZM5.43925 27.9233C5.28382 27.9823 5.20648 28.0558 5.20648 28.1437C5.20648 28.2316 5.26749 28.3011 5.38944 28.3522C5.51066 28.4035 5.7427 28.4526 6.08402 28.4998V27.8188C5.80957 27.8295 5.59467 27.8643 5.43925 27.9233ZM7.36307 29.6492C7.53337 29.589 7.61892 29.5129 7.61892 29.421C7.61892 29.3292 7.55197 29.2564 7.41815 29.2026C7.28353 29.1488 7.0337 29.0983 6.66858 29.051V29.7594C6.96075 29.7464 7.19205 29.7095 7.36307 29.6492Z" fill="#DC8744"/>
<path d="M12.5649 28.3175C12.5649 29.9384 9.75214 31.2525 6.28243 31.2525C2.81272 31.2525 0 29.9385 0 28.3175V25.9166H12.5649V28.3175Z" fill="#F6C358"/>
<path d="M6.2825 28.8498C9.75223 28.8498 12.565 27.5364 12.565 25.9163C12.565 24.2962 9.75223 22.9829 6.2825 22.9829C2.81277 22.9829 0 24.2962 0 25.9163C0 27.5364 2.81277 28.8498 6.2825 28.8498Z" fill="#FCD462"/>
<path d="M6.28375 23.555C3.25563 23.555 0.800781 24.6123 0.800781 25.9166C0.800781 27.2209 3.25563 28.2783 6.28375 28.2783C9.31188 28.2783 11.7667 27.2209 11.7667 25.9166C11.7667 24.6123 9.31188 23.555 6.28375 23.555ZM6.28375 28.0159C3.59211 28.0159 1.41002 27.076 1.41002 25.9166C1.41002 24.7573 3.59211 23.8174 6.28375 23.8174C8.9754 23.8174 11.1575 24.7573 11.1575 25.9166C11.1575 27.076 8.9754 28.0159 6.28375 28.0159Z" fill="#DC8744"/>
<path d="M6.08402 27.5482V27.2608C5.24889 27.2241 4.49923 27.0811 3.83594 26.8319L4.50297 26.4895C5.01458 26.681 5.54113 26.795 6.08402 26.8319V26.0683C5.39538 25.9975 4.89116 25.9043 4.57138 25.7888C4.2516 25.6734 4.09171 25.5021 4.09171 25.2752C4.09171 25.0483 4.2754 24.8627 4.64426 24.7182C5.01311 24.5739 5.49279 24.4953 6.08402 24.4821V24.2852H6.6685V24.4859C7.33854 24.5071 7.97217 24.6054 8.56933 24.7812L7.97517 25.1434C7.57285 25.0201 7.13778 24.944 6.66858 24.915V25.655H6.69611C7.39662 25.7259 7.91123 25.8217 8.23995 25.9423C8.5694 26.0631 8.73376 26.2383 8.73376 26.4678C8.73376 26.6975 8.54487 26.8846 8.16707 27.0287C7.78928 27.1731 7.29027 27.2518 6.66858 27.2649V27.5482H6.08402V27.5482ZM5.43925 25.0076C5.28382 25.0665 5.20648 25.1401 5.20648 25.2279C5.20648 25.3158 5.26749 25.3853 5.38944 25.4364C5.51066 25.4877 5.7427 25.5369 6.08402 25.5841V24.9031C5.80957 24.9137 5.59467 24.9485 5.43925 25.0076ZM7.36307 26.7334C7.53337 26.6732 7.61892 26.5971 7.61892 26.5052C7.61892 26.4134 7.55197 26.3406 7.41815 26.2868C7.28353 26.233 7.0337 26.1826 6.66858 26.1353V26.8436C6.96075 26.8306 7.19205 26.7938 7.36307 26.7334Z" fill="#DC8744"/>
<path d="M25.8149 37.065C25.8149 38.6859 23.0021 40 19.5324 40C16.0627 40 13.25 38.686 13.25 37.065V34.6642H25.8149V37.065Z" fill="#F6C358"/>
<path d="M19.5325 37.5957C23.0022 37.5957 25.815 36.2824 25.815 34.6623C25.815 33.0422 23.0022 31.7289 19.5325 31.7289C16.0628 31.7289 13.25 33.0422 13.25 34.6623C13.25 36.2824 16.0628 37.5957 19.5325 37.5957Z" fill="#FCD462"/>
<path d="M19.5298 32.3025C16.5017 32.3025 14.0469 33.3598 14.0469 34.6641C14.0469 35.9684 16.5017 37.0257 19.5298 37.0257C22.558 37.0257 25.0128 35.9684 25.0128 34.6641C25.0128 33.3598 22.558 32.3025 19.5298 32.3025ZM19.5298 36.7633C16.8382 36.7633 14.6561 35.8234 14.6561 34.664C14.6561 33.5047 16.8382 32.5648 19.5298 32.5648C22.2215 32.5648 24.4036 33.5047 24.4036 34.664C24.4036 35.8235 22.2215 36.7633 19.5298 36.7633Z" fill="#DC8744"/>
<path d="M19.3301 36.2955V36.0082C18.495 35.9715 17.7453 35.8285 17.082 35.5793L17.7491 35.2369C18.2607 35.4285 18.7872 35.5425 19.3301 35.5793V34.8157C18.6415 34.7449 18.1373 34.6517 17.8175 34.5362C17.4977 34.4207 17.3378 34.2495 17.3378 34.0226C17.3378 33.7956 17.5215 33.6101 17.8904 33.4655C18.2592 33.3213 18.7389 33.2426 19.3301 33.2295V33.0326H19.9146V33.2333C20.5846 33.2544 21.2183 33.3528 21.8154 33.5286L21.2213 33.8908C20.8189 33.7675 20.3839 33.6914 19.9147 33.6624V34.4023H19.9422C20.6427 34.4733 21.1573 34.5691 21.486 34.6896C21.8155 34.8104 21.9799 34.9856 21.9799 35.2151C21.9799 35.4448 21.791 35.6319 21.4132 35.776C21.0354 35.9204 20.5364 35.9991 19.9147 36.0122V36.2955H19.3301ZM18.6853 33.755C18.5299 33.8139 18.4526 33.8875 18.4526 33.9754C18.4526 34.0633 18.5136 34.1329 18.6355 34.1839C18.7568 34.2352 18.9888 34.2843 19.3301 34.3315V33.6505C19.0557 33.6611 18.8408 33.6959 18.6853 33.755ZM20.6092 35.4808C20.7795 35.4206 20.8651 35.3445 20.8651 35.2526C20.8651 35.1608 20.7981 35.088 20.6643 35.0342C20.5297 34.9804 20.2799 34.9299 19.9147 34.8827V35.591C20.2069 35.5781 20.4381 35.5412 20.6092 35.4808Z" fill="#DC8744"/>
<path d="M25.8149 34.1492C25.8149 35.7701 23.0021 37.0842 19.5324 37.0842C16.0627 37.0842 13.25 35.7702 13.25 34.1492V31.7484H25.8149V34.1492Z" fill="#F6C358"/>
<path d="M19.5325 34.6832C23.0022 34.6832 25.815 33.3698 25.815 31.7498C25.815 30.1297 23.0022 28.8163 19.5325 28.8163C16.0628 28.8163 13.25 30.1297 13.25 31.7498C13.25 33.3698 16.0628 34.6832 19.5325 34.6832Z" fill="#FCD462"/>
<path d="M19.5298 29.3868C16.5017 29.3868 14.0469 30.4441 14.0469 31.7484C14.0469 33.0527 16.5017 34.11 19.5298 34.11C22.558 34.11 25.0128 33.0527 25.0128 31.7484C25.0128 30.4441 22.558 29.3868 19.5298 29.3868ZM19.5298 33.8476C16.8382 33.8476 14.6561 32.9077 14.6561 31.7483C14.6561 30.589 16.8382 29.6491 19.5298 29.6491C22.2215 29.6491 24.4036 30.589 24.4036 31.7483C24.4036 32.9078 22.2215 33.8476 19.5298 33.8476Z" fill="#DC8744"/>
<path d="M19.3301 33.3798V33.0925C18.495 33.0558 17.7453 32.9128 17.082 32.6636L17.7491 32.3212C18.2607 32.5128 18.7872 32.6268 19.3301 32.6636V31.9C18.6415 31.8292 18.1373 31.736 17.8175 31.6205C17.4977 31.505 17.3378 31.3338 17.3378 31.1069C17.3378 30.8799 17.5215 30.6944 17.8904 30.5498C18.2592 30.4055 18.7389 30.3269 19.3301 30.3137V30.1169H19.9146V30.3176C20.5846 30.3387 21.2183 30.437 21.8154 30.6129L21.2213 30.9751C20.8189 30.8518 20.3839 30.7757 19.9147 30.7467V31.4866H19.9422C20.6427 31.5576 21.1573 31.6534 21.486 31.774C21.8155 31.8948 21.9799 32.07 21.9799 32.2995C21.9799 32.5291 21.791 32.7162 21.4132 32.8604C21.0354 33.0048 20.5364 33.0834 19.9147 33.0966V33.3799H19.3301V33.3798ZM18.6853 30.8393C18.5299 30.8982 18.4526 30.9718 18.4526 31.0597C18.4526 31.1476 18.5136 31.2172 18.6355 31.2682C18.7568 31.3195 18.9888 31.3686 19.3301 31.4158V30.7348C19.0557 30.7455 18.8408 30.7802 18.6853 30.8393ZM20.6092 32.5651C20.7795 32.5049 20.8651 32.4288 20.8651 32.3369C20.8651 32.2451 20.7981 32.1723 20.6643 32.1185C20.5297 32.0647 20.2799 32.0142 19.9147 31.9669V32.6753C20.2069 32.6624 20.4381 32.6255 20.6092 32.5651Z" fill="#DC8744"/>
</g>
<defs>
<clipPath id="clip0">
<rect width="36" height="40" fill="white"/>
</clipPath>
</defs>
</svg>
