<svg width="9" height="9" viewBox="0 0 9 9" fill="none" xmlns="http://www.w3.org/2000/svg">
<path d="M8.9451 4.36721C9.0183 4.44042 9.0183 4.5591 8.9451 4.63233L5.38265 8.19477C4.99879 8.57863 4.37641 8.57863 3.99255 8.19477C3.60868 7.8109 3.60868 7.18852 3.99255 6.80466L5.35977 5.43743H0.937462C0.419706 5.43743 -1.71661e-05 5.01771 -1.71661e-05 4.49996C-1.71661e-05 3.9822 0.419706 3.56248 0.937462 3.56248L5.35979 3.56248L3.99256 2.19525C3.6087 1.81139 3.6087 1.18901 3.99256 0.805144C4.37643 0.421279 4.99881 0.421279 5.38267 0.805144L8.9451 4.36721Z" fill="#69B500"/>
</svg>
