<svg width="17" height="17" viewBox="0 0 17 17" fill="none" xmlns="http://www.w3.org/2000/svg">
<path d="M15.4041 3.79981L15.0287 2.67467C14.8858 2.24614 14.4862 1.95821 14.0346 1.95821H10.8799V0.931114C10.8799 0.417763 10.4625 0 9.94929 0H7.06036C6.54727 0 6.12976 0.417763 6.12976 0.931114V1.95821H2.97521C2.52346 1.95821 2.12386 2.24614 1.98093 2.67467L1.60558 3.79981C1.52011 4.05597 1.56343 4.33962 1.72127 4.55869C1.87912 4.77775 2.13449 4.90862 2.40453 4.90862H2.79687L3.66041 15.5869C3.72461 16.3793 4.39698 17 5.19139 17H11.9935C12.7878 17 13.4603 16.3793 13.5243 15.5868L14.3879 4.90862H14.6051C14.8752 4.90862 15.1305 4.77775 15.2884 4.55882C15.4462 4.33975 15.4895 4.05597 15.4041 3.79981ZM7.12586 0.996094H9.88379V1.95821H7.12586V0.996094ZM12.5315 15.5065C12.5089 15.7855 12.2726 16.0039 11.9935 16.0039H5.19139C4.91227 16.0039 4.67596 15.7855 4.65339 15.5065L3.79621 4.90862H13.3885L12.5315 15.5065ZM2.61814 3.91252L2.92592 2.98984C2.93293 2.96857 2.95277 2.9543 2.97521 2.9543H14.0346C14.057 2.9543 14.0767 2.96857 14.0839 2.98984L14.3916 3.91252H2.61814Z" fill="#939393"/>
<path d="M10.9409 15.4712C10.9497 15.4717 10.9584 15.4719 10.9672 15.4719C11.2304 15.4719 11.4504 15.2656 11.4641 14.9998L11.9318 6.02168C11.9461 5.74697 11.7349 5.5126 11.4603 5.49834C11.185 5.48368 10.9514 5.69509 10.937 5.9698L10.4694 14.9479C10.4552 15.2226 10.6662 15.4569 10.9409 15.4712Z" fill="#939393"/>
<path d="M5.56471 15.0009C5.57924 15.2664 5.79895 15.4719 6.06159 15.4719C6.07067 15.4719 6.08001 15.4716 6.08922 15.4711C6.36379 15.4562 6.57429 15.2214 6.55938 14.9467L6.0695 5.96866C6.05459 5.69396 5.81983 5.48346 5.54513 5.4985C5.27055 5.51342 5.06005 5.74817 5.07496 6.02288L5.56471 15.0009Z" fill="#939393"/>
<path d="M8.50586 15.4718C8.78095 15.4718 9.00391 15.2489 9.00391 14.9738V5.99573C9.00391 5.72063 8.78095 5.49768 8.50586 5.49768C8.23077 5.49768 8.00781 5.72063 8.00781 5.99573V14.9738C8.00781 15.2489 8.23077 15.4718 8.50586 15.4718Z" fill="#939393"/>
</svg>
