<svg width="40" height="25" viewBox="0 0 40 25" fill="none" xmlns="http://www.w3.org/2000/svg">
<g clip-path="url(#clip0)">
<path d="M39.8518 11.5974C39.5368 11.139 31.9668 0.403839 20 0.403839C9.73157 0.403839 0.581487 11.0774 0.196484 11.5324C-0.0651589 11.8424 -0.0651589 12.2974 0.196484 12.609C0.581487 13.064 9.73157 23.7376 20 23.7376C30.2685 23.7376 39.4185 13.064 39.8035 12.609C40.0452 12.3224 40.0668 11.9074 39.8518 11.5974ZM20 22.0709C11.7683 22.0709 3.94152 14.2208 1.95322 12.0707C3.93823 9.91906 11.7567 2.07058 20 2.07058C29.6317 2.07058 36.4302 9.90906 38.0902 12.0257C36.1734 14.1074 28.3017 22.0709 20 22.0709Z" fill="#282828"/>
<path d="M20.0002 8.07074C17.7941 8.07074 15.9999 9.86489 15.9999 12.0711C15.9999 14.2772 17.7941 16.0714 20.0002 16.0714C22.2064 16.0714 24.0005 14.2772 24.0005 12.0711C24.0005 9.86489 22.2064 8.07074 20.0002 8.07074ZM20.0002 15.0713C18.3461 15.0713 17 13.7252 17 12.0711C17 10.417 18.3461 9.07085 20.0002 9.07085C21.6543 9.07085 23.0004 10.417 23.0004 12.0711C23.0004 13.7252 21.6543 15.0713 20.0002 15.0713Z" fill="#282828" stroke="#282828" stroke-width="0.75"/>
</g>
<defs>
<clipPath id="clip0">
<rect width="40" height="24" fill="white" transform="translate(0 0.0707397)"/>
</clipPath>
</defs>
</svg>
