<svg width="133" height="111" viewBox="0 0 133 111" fill="none" xmlns="http://www.w3.org/2000/svg">
<path d="M94.545 36.6644C91.9647 32.5867 89.2463 28.5204 85.8685 25.0105C82.3998 21.4036 77.4327 17.358 72.3492 20.3986L72.291 20.411C72.1002 20.5276 71.9069 20.6537 71.7117 20.7937C71.342 20.9452 70.9875 21.1299 70.6531 21.3453C70.0178 21.7423 69.5097 22.302 69.1876 22.9595C68.6697 23.7547 68.3377 24.6459 68.2149 25.5706C67.7744 28.9015 69.8765 31.7419 71.1866 34.625C72.6357 37.81 73.4984 41.3657 72.5875 44.8414C71.8189 47.8505 69.9783 50.5243 67.3869 52.3962C64.7955 54.2681 61.618 55.2192 58.4089 55.0833C54.8815 54.8836 51.5809 53.4336 49.1458 51.014C46.7188 48.7173 45.2087 45.8408 43.231 43.189C42.461 42.114 41.4068 41.2571 40.1737 40.7036C38.3462 39.3991 35.4628 39.5859 33.5055 40.8029C33.2891 40.9417 33.08 41.0907 32.8789 41.2494C31.7943 41.8851 30.9133 42.7985 30.3373 43.8846C29.6504 44.8673 29.3352 46.0419 29.4457 47.2084C29.4575 47.2641 29.437 47.3222 29.4363 47.385L29.4371 47.6535C29.3371 47.8999 29.3158 48.168 29.3757 48.4233C29.403 48.5518 29.4303 48.6804 29.4576 48.8089C29.4849 48.9374 29.469 49.0169 29.4719 49.1193C29.388 49.4381 29.4227 49.773 29.5698 50.0657C29.7816 51.7627 30.2435 53.418 30.9416 54.9821C31.8968 58.6869 32.9751 62.3611 34.1766 66.0046C36.0086 71.5666 37.8479 77.4494 41.1223 82.3917C46.5727 90.6109 56.454 94.128 66.4502 93.134C72.1285 92.5643 77.6339 90.5401 82.6197 87.8561C87.3476 85.371 91.7033 82.2714 95.5608 78.6471C98.9473 75.3802 101.864 71.4654 103.154 66.9958C103.175 66.9197 103.192 66.8444 103.212 66.764C103.56 65.8639 103.833 64.9404 104.031 64.002C105.055 59.1187 103.886 54.3608 101.998 49.8586C100.049 45.2035 97.2442 40.9272 94.545 36.6644Z" fill="#B4E4EF"/>
<path opacity="0.1" d="M35.1888 45.152C39.4576 45.9964 41.7676 50.9196 44.7387 53.6829C48.6695 57.3261 52.9768 59.3893 58.5031 59.8906C64.2627 60.4096 71.498 57.951 75.2532 53.1774C76.8811 51.09 77.9993 48.683 78.5231 46.1389C79.0469 43.5948 78.9627 40.9802 78.2767 38.4933C76.7796 32.7437 71.1835 27.1481 71.1163 21.095C70.9658 21.1807 70.8109 21.2673 70.6623 21.3615C70.027 21.7585 69.5189 22.3183 69.1968 22.9757C68.6789 23.7709 68.3469 24.6622 68.2241 25.5868C67.7836 28.9177 69.8857 31.7581 71.1958 34.6412C72.645 37.8262 73.5076 41.382 72.5967 44.8576C71.8281 47.8667 69.9875 50.5406 67.3961 52.4125C64.8047 54.2844 61.6272 55.2354 58.4181 55.0996C54.8907 54.8998 51.5901 53.4498 49.155 51.0303C46.7199 48.7173 45.2098 45.8408 43.232 43.189C42.4621 42.1141 41.4079 41.2571 40.1748 40.7037C38.3473 39.3991 35.4639 39.5859 33.5021 40.8039L33.3186 40.9325C33.2517 41.0586 33.2792 41.2543 33.1422 41.3371C31.4785 42.3486 33.4951 44.8086 35.1888 45.152Z" fill="#24597C"/>
<path d="M110.718 9.65056C107.443 9.66547 104.125 11.6908 100.881 11.063C97.9509 10.4986 95.9041 7.85247 93.2758 6.63731C92.0366 6.06383 90.6671 5.78562 89.2813 5.8259C87.8956 5.86618 86.534 6.22377 85.31 6.86884C85.1461 6.95737 84.9795 7.05543 84.8094 7.15872C82.3565 6.41678 79.5372 7.34672 77.3818 8.6014C72.1674 11.6429 69.0601 17.0849 68.265 22.7613C67.8665 25.6001 68.0911 28.4766 68.9242 31.2053C69.9974 34.6492 72.1329 37.8899 72.3079 41.5603C72.6327 48.2528 66.3086 55.8196 58.8057 53.9289C51.88 52.1978 47.6494 45.1569 42.0838 41.3593C39.112 39.3859 35.6044 38.2681 31.9648 38.1345C30.2064 38.06 28.4481 38.3393 26.6902 38.4215C26.8968 37.6566 26.9338 36.8615 26.799 36.0879C26.3812 33.7228 23.9066 31.7093 21.328 32.118C18.4409 32.5742 17.2401 35.4352 18.4545 37.8014C19.1288 39.0567 20.2528 40.0313 21.6238 40.5495C20.7248 41.1173 19.7561 41.5743 18.7412 41.9093C14.8951 43.2543 9.48725 44.8771 6.45035 41.3844C5.21548 39.9809 3.01104 41.9535 4.23695 43.3589C6.25044 45.6718 9.35845 46.5209 12.4472 46.3084C15.909 46.066 20.1144 44.9134 23.0001 43.0603C23.7792 42.5629 24.4814 41.9614 25.0849 41.2744C25.3881 41.2906 25.694 41.2973 25.9927 41.2921C29.551 41.2172 32.7059 40.6324 36.098 41.981C39.49 43.3295 42.1771 45.6158 44.7701 47.9444C49.4866 52.1552 55.1869 57.8227 62.333 57.0175C68.6872 56.2997 73.6966 50.9688 74.9369 45.1396C75.5962 42.0891 75.1579 39.1641 74.0819 36.2806C72.8711 33.027 71.2582 29.9754 71.0585 26.4535C70.7487 20.5817 73.4224 14.09 78.9336 11.0123C79.8725 10.4639 80.8944 10.0625 81.9603 9.82342C81.2457 10.8707 80.9227 12.0632 81.3495 13.2129C82.2601 15.6704 85.8089 16.014 87.4507 13.9952C88.0264 13.2728 88.3404 12.3924 88.3439 11.4911C88.3474 10.5898 88.0402 9.71808 87.4701 9.01179C90.445 7.93238 93.0817 9.84878 95.5124 11.5895C98.2784 13.5859 101.099 14.4064 104.599 13.726C107.532 13.1526 113.18 10.8071 114.692 14.6415C115.365 16.3568 118.045 14.9907 117.361 13.2912C116.361 10.7003 113.461 9.63702 110.718 9.65056ZM20.9408 35.8764C20.9975 34.4449 22.7222 34.934 23.3314 35.5748C23.6128 35.9014 23.7974 36.2955 23.8663 36.7167C23.9351 37.138 23.8858 37.5713 23.7233 37.9723C23.7028 38.0304 23.6779 38.0894 23.6529 38.1484C22.2446 37.8474 20.8953 37.1846 20.9444 35.8936L20.9408 35.8764ZM85.4009 11.5333C85.3181 12.3568 84.2279 12.848 84.2893 11.7693C84.3906 11.315 84.6459 10.9031 85.0151 10.5987C85.2568 10.854 85.3936 11.1855 85.4009 11.5333V11.5333Z" fill="#267BAD"/>
<path d="M100.322 43.556C100.46 43.0223 100.539 42.4772 100.558 41.9298C100.613 40.5811 100.345 39.2441 99.7751 38.0212C98.8233 35.877 97.0242 34.4858 94.9221 33.4544C94.3975 33.1897 93.5399 32.9016 93.2017 32.5659C93.3578 32.5731 93.3085 31.3701 93.3161 31.2296C93.4026 28.9231 92.9119 26.7884 91.464 24.9331C90.8044 24.0721 89.9489 23.3679 88.9608 22.8724C87.9726 22.377 86.877 22.1029 85.7549 22.0705C84.8474 22.0632 83.9403 22.1625 83.0539 22.3663C84.045 23.1872 84.9837 24.0644 85.8649 24.9935C89.2427 28.5033 91.9611 32.5696 94.5413 36.6473C97.2405 40.9102 100.046 45.1864 101.999 49.8406C103.891 54.3419 105.056 59.1007 104.032 63.984C103.834 64.9224 103.56 65.8459 103.213 66.746C103.193 66.8264 103.176 66.9017 103.155 66.9778C101.864 71.4474 98.9481 75.3622 95.5617 78.6291C91.7079 82.2542 87.3555 85.3546 82.6304 87.8405C77.6446 90.5245 72.1393 92.5487 66.461 93.1184C56.4675 94.1253 46.5889 90.621 41.133 82.3761C37.8586 77.4338 36.0238 71.55 34.1873 65.989C32.9835 62.3489 31.9052 58.6748 30.9523 54.9665C30.2542 53.4023 29.7924 51.7471 29.5806 50.0501C29.4334 49.7573 29.3988 49.4225 29.4827 49.1037C29.4618 49.0051 29.4722 48.8999 29.4683 48.7933C29.4644 48.6866 29.4137 48.5362 29.3864 48.4077C29.3265 48.1524 29.3479 47.8843 29.4479 47.6379L29.4471 47.3694C29.4343 47.3094 29.4548 47.2513 29.4564 47.1928C29.4327 46.6937 29.4661 46.1926 29.556 45.6984C29.3736 45.8196 29.2018 45.9549 29.0423 46.103C25.8461 49.0743 23.9363 53.3396 27.2677 56.8951C27.5998 57.2601 27.9533 57.6066 28.3265 57.933C27.1385 59.9495 26.7951 62.1046 27.7908 64.235C28.5951 65.927 30.0563 67.1392 31.5979 68.2C32.1489 68.589 32.8505 68.9371 33.1974 69.4679C33.2074 69.5151 33.1889 69.6265 33.193 69.8002C33.1971 69.974 33.1514 70.2882 33.118 70.5281C33.1039 70.6162 33.0961 70.6895 33.09 70.749C33.0202 71.1041 32.9306 71.4545 32.8464 71.8082C32.6801 72.5913 32.4959 73.3782 32.4112 74.1708C32.1669 75.9787 32.6364 77.7963 33.7269 79.2648C34.9111 80.8045 36.6095 81.523 38.4698 82.0773C38.5551 82.104 39.0495 82.1602 39.194 82.2012L39.2013 82.2355C39.1768 82.2442 39.1511 82.2496 39.1251 82.2516L39.2013 82.2355C39.2467 82.4381 39.2808 82.6431 39.3036 82.8496C39.2463 82.5796 39.3101 83.5199 39.3101 83.5422C39.3066 83.8564 39.2976 84.1673 39.2896 84.4825C39.2788 85.3803 39.2938 86.2234 39.3772 87.1013C39.4714 88.7624 40.1351 90.3372 41.2652 91.5812C42.6644 93.0304 44.6045 93.5857 46.6152 93.7454C47.2684 93.7992 48.0118 93.7041 48.3864 93.9022C48.2751 93.8855 48.8911 94.6906 49.0326 94.9157C51.3536 98.3903 54.9704 100.819 59.5379 99.8497C60.5283 99.6434 61.4842 99.2986 62.3749 98.8264C62.9606 98.5185 62.8834 98.4856 63.3338 98.5109C64.082 98.5491 64.8907 99.0043 65.6249 99.1752C66.7514 99.4508 67.91 99.5986 69.0771 99.6155C73.7641 99.6278 77.2557 97.6282 80.7583 94.7979C82.1579 93.6679 83.4026 93.529 85.2182 93.2331C87.3951 92.8739 89.4466 92.2547 91.1981 90.9067C94.0155 88.7323 94.7646 85.1344 96.4929 82.6181C97.0896 81.7436 98.5105 80.8464 99.7003 80.0743C101.595 78.8258 103.227 77.4673 104.251 75.4499C104.746 74.5305 105.033 73.524 105.093 72.4975C105.153 71.471 104.984 70.4481 104.598 69.4968C104.526 69.3107 104.451 69.1117 104.371 68.9136L104.478 68.8417C108.148 66.4461 109.949 62.0875 107.83 58.1536C107.343 57.3343 106.74 56.5855 106.036 55.9283C105.995 55.8879 105.869 55.7803 105.719 55.6465C105.922 55.3256 106.111 54.9991 106.191 54.8924C106.748 54.1459 107.173 53.3172 107.446 52.4408C108.828 47.8085 104.076 44.5994 100.322 43.556ZM104.034 68.2285C103.665 67.7291 104.058 67.6144 104.034 68.2285V68.2285ZM100.242 43.7521L100.279 43.6369C100.428 43.8963 100.037 44.3509 100.26 43.7483L100.242 43.7521Z" fill="#3A9BCC"/>
<path opacity="0.1" d="M92.9262 58.161C91.0391 65.1283 88.5915 71.9538 85.6059 78.5755C83.9126 82.4568 81.7514 86.141 79.1672 89.5519C80.3425 89.0202 81.4998 88.4476 82.6264 87.8413C87.3517 85.3609 91.7053 82.2663 95.5613 78.647C98.9478 75.3801 101.864 71.4653 103.154 66.9957C103.176 66.9195 103.192 66.8443 103.213 66.7639C103.56 65.8638 103.834 64.9403 104.032 64.0019C105.056 59.1186 103.887 54.3607 101.998 49.8584C100.046 45.2086 97.2411 40.9324 94.541 36.6652C91.9607 32.5875 89.2424 28.5212 85.8645 25.0114C84.744 23.8194 83.5205 22.7208 82.2066 21.7267C90.9002 31.8947 96.4766 44.7888 92.9262 58.161Z" fill="#24597C"/>
</svg>
