<svg width="18" height="56" viewBox="0 0 18 56" fill="none" xmlns="http://www.w3.org/2000/svg">
<g clip-path="url(#clip0)">
<path d="M9.50781 0.281738H8.50781V42.6118H9.50781V0.281738Z" fill="#FFE7DB"/>
<path d="M8.83783 55.7816C13.7145 55.7816 17.6678 51.8283 17.6678 46.9516C17.6678 42.0749 13.7145 38.1216 8.83783 38.1216C3.96116 38.1216 0.0078125 42.0749 0.0078125 46.9516C0.0078125 51.8283 3.96116 55.7816 8.83783 55.7816Z" fill="#FFAB22"/>
<path d="M15.9173 41.6816C15.2243 43.0041 14.2074 44.1292 12.9615 44.9519C11.7156 45.7745 10.2814 46.2679 8.79307 46.3857C7.30474 46.5036 5.81082 46.2422 4.45097 45.6259C3.09112 45.0095 1.90972 44.0585 1.01725 42.8616C0.280639 44.2613 -0.06699 45.8329 0.0106615 47.4127C0.088313 48.9924 0.588391 50.5224 1.45872 51.843C2.32905 53.1637 3.53779 54.2266 4.95884 54.9211C6.37989 55.6155 7.96123 55.9159 9.53794 55.791C11.1147 55.6662 12.629 55.1206 13.923 54.2112C15.217 53.3017 16.2433 52.0617 16.8949 50.6205C17.5465 49.1794 17.7996 47.5898 17.6276 46.0175C17.4556 44.4452 16.865 42.9479 15.9173 41.6816Z" fill="#E4872B"/>
<path d="M11.2469 40.2217C11.2469 39.4417 9.85691 38.8018 8.14691 38.8018C6.43691 38.8018 5.04688 39.4417 5.04688 40.2217C5.04688 41.0017 6.43691 41.6418 8.14691 41.6418C9.85691 41.6418 11.2469 41.0117 11.2469 40.2217Z" fill="#FFE499"/>
<path d="M12.9484 41.5118C13.0414 41.4737 13.1257 41.4173 13.1964 41.3459C13.2671 41.2746 13.3228 41.1898 13.3601 41.0965C13.3974 41.0032 13.4156 40.9034 13.4136 40.8029C13.4116 40.7025 13.3894 40.6035 13.3484 40.5118C13.3071 40.3058 13.1892 40.1231 13.0184 40.0006C12.8477 39.8781 12.6368 39.8249 12.4284 39.8518C12.2424 39.9312 12.0952 40.0807 12.0185 40.2678C11.9418 40.4549 11.9418 40.6647 12.0184 40.8518C12.062 41.0586 12.1819 41.2415 12.3542 41.3638C12.5266 41.4861 12.7388 41.539 12.9484 41.5118Z" fill="#FFE499"/>
</g>
<defs>
<clipPath id="clip0">
<rect width="17.68" height="55.5369" fill="white" transform="translate(0 0.281738)"/>
</clipPath>
</defs>
</svg>
