<svg width="50" height="51" viewBox="0 0 50 51" fill="none" xmlns="http://www.w3.org/2000/svg">
<g clip-path="url(#clip0)">
<path d="M18.0332 36.0082H16.0907C15.8875 36.0082 15.6926 35.9259 15.5489 35.7794C15.4052 35.6329 15.3245 35.4342 15.3245 35.227C15.3245 35.0198 15.4052 34.821 15.5489 34.6745C15.6926 34.528 15.8875 34.4457 16.0907 34.4457H17.2131L20.0505 30.1062C20.1059 30.0197 20.1775 29.9453 20.2612 29.8872C20.3449 29.8291 20.4391 29.7885 20.5383 29.7678C20.6375 29.747 20.7397 29.7465 20.8391 29.7663C20.9385 29.7861 21.033 29.8258 21.1173 29.883C21.2015 29.9403 21.2738 30.0141 21.33 30.1C21.3861 30.1859 21.425 30.2823 21.4443 30.3837C21.4637 30.485 21.4632 30.5893 21.4428 30.6904C21.4224 30.7915 21.3825 30.8875 21.3255 30.9729L18.0332 36.0082Z" fill="#525252"/>
<path d="M12.6696 36.0082H10.7272C10.5239 36.0082 10.3291 35.9259 10.1854 35.7794C10.0417 35.6329 9.96094 35.4342 9.96094 35.227C9.96094 35.0198 10.0417 34.821 10.1854 34.6745C10.3291 34.528 10.5239 34.4457 10.7272 34.4457H11.8496L14.687 30.1062C14.7424 30.0197 14.8139 29.9453 14.8977 29.8872C14.9814 29.8291 15.0756 29.7885 15.1748 29.7678C15.2739 29.747 15.3762 29.7465 15.4756 29.7663C15.575 29.7861 15.6695 29.8258 15.7538 29.883C15.838 29.9403 15.9103 30.0141 15.9664 30.1C16.0226 30.1859 16.0614 30.2823 16.0808 30.3837C16.1002 30.485 16.0996 30.5893 16.0793 30.6904C16.0589 30.7915 16.019 30.8875 15.962 30.9729L12.6696 36.0082Z" fill="#525252"/>
<path d="M43.6749 45.3832C46.6371 45.3832 49.0384 42.9348 49.0384 39.9145C49.0384 36.8942 46.6371 34.4457 43.6749 34.4457C40.7126 34.4457 38.3113 36.8942 38.3113 39.9145C38.3113 42.9348 40.7126 45.3832 43.6749 45.3832Z" fill="#FFE7DE"/>
<path d="M30.6071 44.3787L28.2476 43.6994C28.0617 43.6458 27.888 43.5555 27.7363 43.4335C27.5846 43.3115 27.458 43.1602 27.3637 42.9883C27.2694 42.8164 27.2092 42.6273 27.1865 42.4317C27.1639 42.236 27.1793 42.0378 27.2318 41.8482C27.2843 41.6587 27.3729 41.4815 27.4925 41.3269C27.6122 41.1722 27.7606 41.0431 27.9291 40.947C28.0977 40.8508 28.2832 40.7894 28.4751 40.7663C28.6669 40.7432 28.8614 40.7589 29.0473 40.8124L31.4068 41.4918L30.6071 44.3787Z" fill="#FFE7DE"/>
<path d="M31.382 40.6389L29.0224 39.9595C28.8365 39.906 28.6628 39.8156 28.5111 39.6936C28.3594 39.5716 28.2328 39.4203 28.1385 39.2484C28.0441 39.0766 27.9839 38.8874 27.9613 38.6918C27.9387 38.4962 27.954 38.2979 28.0065 38.1084C28.0591 37.9188 28.1477 37.7417 28.2673 37.587C28.387 37.4324 28.5353 37.3033 28.7039 37.2071C28.8725 37.1109 29.058 37.0495 29.2499 37.0264C29.4417 37.0034 29.6362 37.019 29.8221 37.0726L32.1816 37.752L31.382 40.6389Z" fill="#FFE7DE"/>
<path d="M38.351 50.0707C35.1112 50.0824 31.9621 48.9804 29.4122 46.9428L29.0291 46.6383L36.2056 14.1332H40.4965L47.673 46.6383L47.2899 46.9428C44.7399 48.9804 41.5907 50.0824 38.351 50.0707Z" fill="#F8BBD0"/>
<path d="M40.4928 11.0082H36.1298L35.4055 6.57758C35.3689 6.35373 35.3806 6.12445 35.4397 5.90568C35.4988 5.68691 35.604 5.48389 35.7478 5.31074C35.8917 5.1376 36.0708 4.99848 36.2728 4.90306C36.4747 4.80765 36.6946 4.75823 36.9172 4.75824H39.7055C39.928 4.75823 40.1479 4.80765 40.3498 4.90306C40.5518 4.99848 40.7309 5.1376 40.8748 5.31074C41.0186 5.48389 41.1238 5.68691 41.1829 5.90568C41.242 6.12445 41.2537 6.35373 41.2171 6.57758L40.4928 11.0082Z" fill="#F8BBD0"/>
<path d="M49.0385 15.6957H32.1815V9.44574H43.6749C45.0969 9.44739 46.4602 10.0241 47.4657 11.0493C48.4713 12.0746 49.0369 13.4646 49.0385 14.9145V15.6957Z" fill="#C9B28F"/>
<path d="M22.2206 31.3207H17.6232C14.9823 31.3177 12.4504 30.2467 10.5831 28.3427C8.71566 26.4387 7.66525 23.8572 7.66226 21.1645V20.3832H9.83642C4.03667 17.6632 0 11.6821 0 4.75824V0.0707397H16.857C18.4821 0.0726008 20.0402 0.731679 21.1894 1.90338C22.3385 3.07508 22.985 4.66371 22.9868 6.32074V21.1645C22.9868 21.3717 23.0675 21.5704 23.2112 21.7169C23.3549 21.8634 23.5498 21.9457 23.753 21.9457C23.9562 21.9457 24.1511 21.8634 24.2948 21.7169C24.4385 21.5704 24.5192 21.3717 24.5192 21.1645V12.6513C24.5192 9.60033 26.9181 7.11088 29.8667 7.10199H29.8828C31.2748 7.1016 32.6124 7.65299 33.613 8.63966C34.6136 9.62633 35.1988 10.971 35.2449 12.3895C35.2911 13.808 34.7945 15.1892 33.8602 16.2413C32.926 17.2934 31.6271 17.9339 30.2381 18.0276L30.2175 18.029C29.9207 18.0469 29.6417 18.1794 29.4372 18.3994C29.2327 18.6195 29.1181 18.9107 29.1166 19.2138V24.2895C29.1145 26.1537 28.3873 27.9409 27.0945 29.259C25.8017 30.5772 24.0489 31.3186 22.2206 31.3207Z" fill="#EDEDED"/>
<path d="M15.3245 5.53949C15.3245 5.74669 15.2438 5.9454 15.1001 6.09192C14.9564 6.23843 14.7615 6.32074 14.5583 6.32074H6.00051C3.7634 6.31421 1.61463 5.42981 0 3.85101L0 1.40961C0.646776 2.43389 1.53465 3.27687 2.58271 3.86175C3.63078 4.44664 4.80573 4.75482 6.00051 4.75824H14.5583C14.7615 4.75824 14.9564 4.84055 15.1001 4.98706C15.2438 5.13358 15.3245 5.33229 15.3245 5.53949Z" fill="#D6D5D4"/>
<path d="M15.325 10.227C15.325 10.4342 15.2443 10.6329 15.1006 10.7794C14.9569 10.9259 14.762 11.0082 14.5588 11.0082H7.20592C4.74994 11.0138 2.36376 10.1754 0.432486 8.62836V8.62738C0.243554 7.79622 0.116446 6.95169 0.0522461 6.10101C0.936356 7.15299 2.03382 7.99682 3.26888 8.57428C4.50395 9.15174 5.8472 9.44907 7.20592 9.44574H14.5588C14.762 9.44574 14.9569 9.52805 15.1006 9.67456C15.2443 9.82108 15.325 10.0198 15.325 10.227Z" fill="#D6D5D4"/>
<path d="M15.3247 14.9145C15.3247 15.1217 15.244 15.3204 15.1003 15.4669C14.9566 15.6134 14.7617 15.6957 14.5585 15.6957H6.89621C5.61329 15.6945 4.34767 15.3938 3.1963 14.8168C2.38992 13.6829 1.72311 12.4524 1.21082 11.1528C1.2752 11.1995 1.33207 11.2562 1.37939 11.3207C2.0236 12.192 2.85692 12.8992 3.81405 13.3872C4.77117 13.8751 5.82611 14.1305 6.89621 14.1332H14.5585C14.7617 14.1332 14.9566 14.2155 15.1003 14.3621C15.244 14.5086 15.3247 14.7073 15.3247 14.9145Z" fill="#D6D5D4"/>
<path d="M15.3244 19.602C15.3244 19.3948 15.2437 19.1961 15.1 19.0496C14.9563 18.903 14.7614 18.8207 14.5582 18.8207H7.17566C8.01409 19.423 8.90466 19.946 9.83628 20.3832H14.5582C14.7614 20.3832 14.9563 20.3009 15.1 20.1544C15.2437 20.0079 15.3244 19.8092 15.3244 19.602Z" fill="#D6D5D4"/>
<path d="M29.8828 12.5707C30.306 12.5707 30.649 12.221 30.649 11.7895C30.649 11.358 30.306 11.0082 29.8828 11.0082C29.4596 11.0082 29.1166 11.358 29.1166 11.7895C29.1166 12.221 29.4596 12.5707 29.8828 12.5707Z" fill="#525252"/>
<path d="M15.3246 27.4145C13.2435 27.4161 11.1724 27.1197 9.17212 26.5339C10.0665 27.9976 11.3115 29.2051 12.7901 30.0426C14.2686 30.88 15.9319 31.3199 17.6233 31.3207H22.2207C24.049 31.3186 25.8018 30.5772 27.0946 29.259C28.3874 27.9409 29.1146 26.1536 29.1167 24.2895V22.5219C25.1949 25.6973 20.3326 27.4221 15.3246 27.4145Z" fill="#E3E3E3"/>
<path d="M18.7725 6.32074C19.8304 6.32074 20.6881 5.4463 20.6881 4.36761C20.6881 3.28893 19.8304 2.41449 18.7725 2.41449C17.7146 2.41449 16.8569 3.28893 16.8569 4.36761C16.8569 5.4463 17.7146 6.32074 18.7725 6.32074Z" fill="white"/>
<path d="M20.305 10.227C20.9397 10.227 21.4543 9.70232 21.4543 9.05511C21.4543 8.40791 20.9397 7.88324 20.305 7.88324C19.6702 7.88324 19.1556 8.40791 19.1556 9.05511C19.1556 9.70232 19.6702 10.227 20.305 10.227Z" fill="white"/>
<path d="M37.9281 25.0707C38.9861 25.0707 39.8437 24.1963 39.8437 23.1176C39.8437 22.0389 38.9861 21.1645 37.9281 21.1645C36.8702 21.1645 36.0126 22.0389 36.0126 23.1176C36.0126 24.1963 36.8702 25.0707 37.9281 25.0707Z" fill="#FCE4EC"/>
<path d="M39.4606 28.977C40.0954 28.977 40.61 28.4523 40.61 27.8051C40.61 27.1579 40.0954 26.6332 39.4606 26.6332C38.8259 26.6332 38.3113 27.1579 38.3113 27.8051C38.3113 28.4523 38.8259 28.977 39.4606 28.977Z" fill="#FCE4EC"/>
<path d="M37.9281 12.5707C38.5629 12.5707 39.0775 12.0461 39.0775 11.3989C39.0775 10.7517 38.5629 10.227 37.9281 10.227C37.2934 10.227 36.7788 10.7517 36.7788 11.3989C36.7788 12.0461 37.2934 12.5707 37.9281 12.5707Z" fill="#DBD0C1"/>
<path d="M40.61 13.352C41.0332 13.352 41.3762 13.0022 41.3762 12.5707C41.3762 12.1393 41.0332 11.7895 40.61 11.7895C40.1868 11.7895 39.8438 12.1393 39.8438 12.5707C39.8438 13.0022 40.1868 13.352 40.61 13.352Z" fill="#DBD0C1"/>
<path d="M46.0348 10.005C45.0618 11.7349 43.6581 13.1722 41.9655 14.1715C40.2729 15.1707 38.3516 15.6966 36.3958 15.6957H49.0385V14.9145C49.0375 13.8918 48.7557 12.8898 48.2248 12.022C47.6939 11.1543 46.9352 10.4556 46.0348 10.005Z" fill="#C1A784"/>
<path d="M44.3896 31.7672C43.0995 34.8213 41.081 37.4982 38.5178 39.5543C35.9546 41.6104 32.9279 42.9806 29.713 43.5402L29.0291 46.6383L29.4122 46.9428C31.9677 48.9701 35.1131 50.0707 38.351 50.0707C41.5888 50.0707 44.7343 48.9701 47.2897 46.9428L47.6729 46.6383L44.3896 31.7672Z" fill="#F4ABC3"/>
</g>
<defs>
<clipPath id="clip0">
<rect width="49.0385" height="50" fill="white" transform="translate(0 0.0707397)"/>
</clipPath>
</defs>
</svg>
